Simulate a dataset compliant with AMS-II.F — simulate_ams_iif_dataset • cdmAmsIIf
…
  fuel_savings
Expected fractional reduction in fuel demand under the

  fuel_switch_reduction
Expected fractional reduction in thermal emission

    Value

    A tibble containing facility IDs, monitoring metadata, baseline and

    Examples

simulate_ams_iif_dataset(n_facilities = 3)
#> # A tibble: 36 × 20
#>    facility_id monitoring_period  year month   day monitoring_date
#>    <chr>                   <int> <dbl> <dbl> <int> <date>         
#>  1 facility_01                 1  2023     1    13 2023-01-13     
#>  2 facility_01                 2  2023     2    23 2023-02-23     
#>  3 facility_01                 3  2023     3    12 2023-03-12     
#>  4 facility_01                 4  2023     4     5 2023-04-05     
#>  5 facility_01                 5  2023     5     6 2023-05-06     
#>  6 facility_01                 6  2023     6    15 2023-06-15     
#>  7 facility_01                 7  2023     7    15 2023-07-15     
#>  8 facility_01                 8  2023     8     4 2023-08-04     
#>  9 facility_01                 9  2023     9     6 2023-09-06     
#> 10 facility_01                10  2023    10     9 2023-10-09     
#> # ℹ 26 more rows
#> # ℹ 14 more variables: monitoring_label <chr>, baseline_electricity_mwh <dbl>,
#> #   baseline_fuel_energy_gj <dbl>,
#> #   baseline_electricity_emission_factor_tco2_per_mwh <dbl>,
#> #   baseline_fuel_emission_factor_tco2_per_gj <dbl>,
#> #   baseline_total_energy_mwh <dbl>, project_electricity_mwh <dbl>,
#> #   project_fuel_energy_gj <dbl>, …
…
